COD/simulation/qsim/serial_encoder.msim.vcd
$comment
	File created using the following command:
		vcd file serial_encoder.msim.vcd -direction
$end
$date
	Wed Nov 16 17:09:10 2022
$end
$version
	ModelSim Version 10.5b
$end
$timescale
	1ps
$end

$scope module serial_encoder_vhd_vec_tst $end
$var wire 1 ! clk $end
$var wire 1 " code [7] $end
$var wire 1 # code [6] $end
$var wire 1 $ code [5] $end
$var wire 1 % code [4] $end
$var wire 1 & code [3] $end
$var wire 1 ' code [2] $end
$var wire 1 ( code [1] $end
$var wire 1 ) code [0] $end
$var wire 1 * mIn $end
$var wire 1 + nGRst $end

$scope module i1 $end
$var wire 1 , gnd $end
$var wire 1 - vcc $end
$var wire 1 . unknown $end
$var wire 1 / devoe $end
$var wire 1 0 devclrn $end
$var wire 1 1 devpor $end
$var wire 1 2 ww_devoe $end
$var wire 1 3 ww_devclrn $end
$var wire 1 4 ww_devpor $end
$var wire 1 5 ww_nGRst $end
$var wire 1 6 ww_clk $end
$var wire 1 7 ww_mIn $end
$var wire 1 8 ww_code [7] $end
$var wire 1 9 ww_code [6] $end
$var wire 1 : ww_code [5] $end
$var wire 1 ; ww_code [4] $end
$var wire 1 < ww_code [3] $end
$var wire 1 = ww_code [2] $end
$var wire 1 > ww_code [1] $end
$var wire 1 ? ww_code [0] $end
$var wire 1 @ \con|nord|y~0clkctrl_INCLK_bus\ [3] $end
$var wire 1 A \con|nord|y~0clkctrl_INCLK_bus\ [2] $end
$var wire 1 B \con|nord|y~0clkctrl_INCLK_bus\ [1] $end
$var wire 1 C \con|nord|y~0clkctrl_INCLK_bus\ [0] $end
$var wire 1 D \clk~inputclkctrl_INCLK_bus\ [3] $end
$var wire 1 E \clk~inputclkctrl_INCLK_bus\ [2] $end
$var wire 1 F \clk~inputclkctrl_INCLK_bus\ [1] $end
$var wire 1 G \clk~inputclkctrl_INCLK_bus\ [0] $end
$var wire 1 H \code[0]~output_o\ $end
$var wire 1 I \code[1]~output_o\ $end
$var wire 1 J \code[2]~output_o\ $end
$var wire 1 K \code[3]~output_o\ $end
$var wire 1 L \code[4]~output_o\ $end
$var wire 1 M \code[5]~output_o\ $end
$var wire 1 N \code[6]~output_o\ $end
$var wire 1 O \code[7]~output_o\ $end
$var wire 1 P \clk~input_o\ $end
$var wire 1 Q \bc|ff0|Q~0_combout\ $end
$var wire 1 R \nGRst~input_o\ $end
$var wire 1 S \con|cMem|prog~0_combout\ $end
$var wire 1 T \bc|ff1|Q~feeder_combout\ $end
$var wire 1 U \bc|ff1|Q~q\ $end
$var wire 1 V \con|nad2|y~0_combout\ $end
$var wire 1 W \con|nad2|y~1_combout\ $end
$var wire 1 X \bc|ff0|Q~q\ $end
$var wire 1 Y \bc|ff2|Q~0_combout\ $end
$var wire 1 Z \bc|ff2|Q~q\ $end
$var wire 1 [ \con|nord|y~0_combout\ $end
$var wire 1 \ \con|nord|y~0clkctrl_outclk\ $end
$var wire 1 ] \and8|bit7|y~0_combout\ $end
$var wire 1 ^ \clk~inputclkctrl_outclk\ $end
$var wire 1 _ \pr8|ff0|Q~feeder_combout\ $end
$var wire 1 ` \pr8|ff0|Q~q\ $end
$var wire 1 a \mIn~input_o\ $end
$var wire 1 b \ff|Q~feeder_combout\ $end
$var wire 1 c \ff|Q~q\ $end
$var wire 1 d \xor8|bit0|y~combout\ $end
$var wire 1 e \finalpr8|ff0|Q~0_combout\ $end
$var wire 1 f \con|nad4|y~0_combout\ $end
$var wire 1 g \finalpr8|ff0|Q~q\ $end
$var wire 1 h \and8|bit7|y~1_combout\ $end
$var wire 1 i \pr8|ff1|Q~feeder_combout\ $end
$var wire 1 j \pr8|ff1|Q~q\ $end
$var wire 1 k \and8|bit1|y~0_combout\ $end
$var wire 1 l \xor8|bit1|y~combout\ $end
$var wire 1 m \finalpr8|ff1|Q~0_combout\ $end
$var wire 1 n \finalpr8|ff1|Q~q\ $end
$var wire 1 o \pr8|ff2|Q~feeder_combout\ $end
$var wire 1 p \pr8|ff2|Q~q\ $end
$var wire 1 q \xor8|bit2|y~combout\ $end
$var wire 1 r \finalpr8|ff2|Q~0_combout\ $end
$var wire 1 s \finalpr8|ff2|Q~q\ $end
$var wire 1 t \pr8|ff3|Q~feeder_combout\ $end
$var wire 1 u \pr8|ff3|Q~q\ $end
$var wire 1 v \and8|bit3|y~0_combout\ $end
$var wire 1 w \xor8|bit3|y~combout\ $end
$var wire 1 x \finalpr8|ff3|Q~0_combout\ $end
$var wire 1 y \finalpr8|ff3|Q~q\ $end
$var wire 1 z \pr8|ff4|Q~feeder_combout\ $end
$var wire 1 { \pr8|ff4|Q~q\ $end
$var wire 1 | \xor8|bit4|y~combout\ $end
$var wire 1 } \finalpr8|ff4|Q~0_combout\ $end
$var wire 1 ~ \finalpr8|ff4|Q~q\ $end
$var wire 1 !! \and8|bit5|y~0_combout\ $end
$var wire 1 "! \pr8|ff5|Q~q\ $end
$var wire 1 #! \xor8|bit5|y~combout\ $end
$var wire 1 $! \finalpr8|ff5|Q~0_combout\ $end
$var wire 1 %! \finalpr8|ff5|Q~q\ $end
$var wire 1 &! \pr8|ff6|Q~q\ $end
$var wire 1 '! \and8|bit6|y~0_combout\ $end
$var wire 1 (! \xor8|bit6|y~combout\ $end
$var wire 1 )! \finalpr8|ff6|Q~0_combout\ $end
$var wire 1 *! \finalpr8|ff6|Q~q\ $end
$var wire 1 +! \pr8|ff7|Q~q\ $end
$var wire 1 ,! \xor8|bit7|y~combout\ $end
$var wire 1 -! \finalpr8|ff7|Q~0_combout\ $end
$var wire 1 .! \finalpr8|ff7|Q~q\ $end
$var wire 1 /! \con|nad2|ALT_INV_y~1_combout\ $end
$var wire 1 0! \con|nad4|ALT_INV_y~0_combout\ $end
$var wire 1 1! \finalpr8|ff7|ALT_INV_Q~q\ $end
$var wire 1 2! \finalpr8|ff6|ALT_INV_Q~q\ $end
$var wire 1 3! \finalpr8|ff5|ALT_INV_Q~q\ $end
$var wire 1 4! \finalpr8|ff4|ALT_INV_Q~q\ $end
$var wire 1 5! \finalpr8|ff3|ALT_INV_Q~q\ $end
$var wire 1 6! \finalpr8|ff2|ALT_INV_Q~q\ $end
$var wire 1 7! \finalpr8|ff1|ALT_INV_Q~q\ $end
$var wire 1 8! \finalpr8|ff0|ALT_INV_Q~q\ $end
$upscope $end
$upscope $end
$enddefinitions $end
#0
$dumpvars
0!
0*
0+
0,
1-
x.
1/
10
11
12
13
14
05
06
07
1H
1I
1J
1K
1L
1M
1N
1O
0P
1Q
0R
0S
0T
0U
0V
0W
0X
0Y
0Z
0[
0\
1]
0^
0_
0`
0a
0b
0c
0d
1e
0f
0g
0h
0i
0j
0k
0l
1m
0n
0o
0p
0q
1r
0s
0t
0u
0v
0w
1x
0y
0z
0{
0|
1}
0~
0!!
0"!
0#!
1$!
0%!
0&!
0'!
0(!
1)!
0*!
0+!
0,!
1-!
0.!
1/!
10!
11!
12!
13!
14!
15!
16!
17!
18!
1"
1#
1$
1%
1&
1'
1(
1)
18
19
1:
1;
1<
1=
1>
1?
1@
1A
1B
0C
1D
1E
1F
0G
$end
#10000
1*
17
1a
1b
#25000
1!
16
1P
1G
1W
1X
1f
00!
0/!
0Q
1S
0]
1^
0X
1T
1Q
0S
1]
0T
#30000
0*
07
0a
0b
#40000
1+
15
1R
0W
1/!
#50000
0!
06
0P
0G
0f
10!
0^
#70000
1*
17
1a
1b
#75000
1!
16
1P
1G
1X
1f
00!
0Q
1S
0]
1^
0f
1T
1c
10!
1d
1k
1'!
1(!
1q
1|
1_
0e
1z
0}
1o
0r
0)!
#80000
0*
07
0a
0b
#100000
0!
06
0P
0G
0^
#120000
1*
17
1a
1b
#125000
1!
16
1P
1G
1U
0X
1Q
0q
1V
1l
1!!
0'!
1^
0(!
1#!
1i
0m
0o
1r
1`
1p
1{
1&!
0$!
1)!
1(!
0|
1q
0d
0_
1e
1o
0r
0z
1}
0)!
#130000
0*
07
0a
0b
#150000
0!
06
0P
0G
0^
#170000
1*
17
1a
1b
#175000
1!
16
1P
1G
1X
0Q
0S
0V
1Y
0q
1v
0!!
1^
0#!
1w
0o
1r
0T
1|
0`
1j
0{
1"!
1z
0}
1t
0x
1$!
1#!
0|
0l
1d
1_
0e
0i
1m
0z
1}
0$!
#180000
0*
07
0a
0b
#200000
0!
06
0P
0G
0^
#225000
1!
16
1P
1G
0U
0X
1Z
0d
0k
1Q
1q
1]
1h
1l
1!!
1'!
1^
0(!
0#!
1i
0m
1,!
1d
1o
0r
0l
0q
1|
0_
1e
1`
0c
0j
0p
1u
1z
0}
0o
1r
0i
1m
1_
0e
0-!
1$!
1)!
0w
1q
1l
0h
0v
0!!
0'!
1(!
1#!
1w
0l
0q
0|
0,!
1i
0m
1o
0r
0t
1x
1-!
0z
1}
0o
1r
0i
1m
1t
0x
0$!
0)!
#250000
0!
06
0P
0G
0^
#275000
1!
16
1P
1G
1X
0Q
1S
0]
1^
1T
#300000
0!
06
0P
0G
1[
1C
0^
1\
1n
1s
1~
1.!
01!
04!
06!
07!
0I
0J
0L
0O
0>
0=
0;
08
0(
0'
0%
0"
#320000
1*
17
1a
1b
#325000
1!
16
1P
1G
1U
0X
0[
0C
1Q
1V
1^
1W
0\
1c
0/!
0U
0Z
0`
0c
0u
0"!
0&!
0(!
0#!
0w
0W
0d
0S
0V
0Y
1]
1/!
1f
0T
0_
1e
0t
1x
1$!
1)!
00!
0n
0s
0~
0.!
11!
14!
16!
17!
1I
1J
1L
1O
1>
1=
1;
18
1(
1'
1%
1"
#340000
0*
07
0a
0b
#350000
0!
06
0P
0G
0f
10!
0^
#375000
1!
16
1P
1G
1X
1f
00!
0Q
1S
0]
1^
0f
1T
10!
#400000
0!
06
0P
0G
0^
#425000
1!
16
1P
1G
1U
0X
1Q
1V
1^
#450000
0!
06
0P
0G
0^
#475000
1!
16
1P
1G
1X
0Q
0S
0V
1Y
1^
0T
#500000
0!
06
0P
0G
0^
#525000
1!
16
1P
1G
0U
0X
1Z
1Q
1]
1^
#550000
0!
06
0P
0G
0^
#575000
1!
16
1P
1G
1X
0Q
1S
0]
1^
1T
#600000
0!
06
0P
0G
1[
1C
0^
1\
1g
1n
1s
1y
1~
1%!
1*!
1.!
01!
02!
03!
04!
05!
06!
07!
08!
0H
0I
0J
0K
0L
0M
0N
0O
0?
0>
0=
0<
0;
0:
09
08
0)
0(
0'
0&
0%
0$
0#
0"
#620000
1*
17
1a
1b
#625000
1!
16
1P
1G
1U
0X
0[
0C
1Q
1V
1^
1W
0\
1c
0/!
0U
0Z
0c
0W
0S
0V
0Y
1]
1/!
1f
0T
00!
0g
0n
0s
0y
0~
0%!
0*!
0.!
11!
12!
13!
14!
15!
16!
17!
18!
1H
1I
1J
1K
1L
1M
1N
1O
1?
1>
1=
1<
1;
1:
19
18
1)
1(
1'
1&
1%
1$
1#
1"
#640000
0*
07
0a
0b
#650000
0!
06
0P
0G
0f
10!
0^
#675000
1!
16
1P
1G
1X
1f
00!
0Q
1S
0]
1^
0f
1T
10!
#700000
0!
06
0P
0G
0^
#725000
1!
16
1P
1G
1U
0X
1Q
1V
1^
#750000
0!
06
0P
0G
0^
#775000
1!
16
1P
1G
1X
0Q
0S
0V
1Y
1^
0T
#800000
0!
06
0P
0G
0^
#825000
1!
16
1P
1G
0U
0X
1Z
1Q
1]
1^
#850000
0!
06
0P
0G
0^
#875000
1!
16
1P
1G
1X
0Q
1S
0]
1^
1T
#900000
0!
06
0P
0G
1[
1C
0^
1\
1g
1n
1s
1y
1~
1%!
1*!
1.!
01!
02!
03!
04!
05!
06!
07!
08!
0H
0I
0J
0K
0L
0M
0N
0O
0?
0>
0=
0<
0;
0:
09
08
0)
0(
0'
0&
0%
0$
0#
0"
#925000
1!
16
1P
1G
1U
0X
0[
0C
1Q
1V
1^
1W
0\
0/!
0U
0Z
0W
0S
0V
0Y
1]
1/!
1f
0T
00!
0g
0n
0s
0y
0~
0%!
0*!
0.!
11!
12!
13!
14!
15!
16!
17!
18!
1H
1I
1J
1K
1L
1M
1N
1O
1?
1>
1=
1<
1;
1:
19
18
1)
1(
1'
1&
1%
1$
1#
1"
#950000
0!
06
0P
0G
0f
10!
0^
#975000
1!
16
1P
1G
1X
1f
00!
0Q
1S
0]
1^
0f
1T
10!
