DEC/simulation/qsim/parallel_decoder.msim.vcd
$comment
	File created using the following command:
		vcd file parallel_decoder.msim.vcd -direction
$end
$date
	Wed Nov 16 17:15:01 2022
$end
$version
	ModelSim Version 10.5b
$end
$timescale
	1ps
$end

$scope module parallel_decoder_vhd_vec_tst $end
$var wire 1 ! m [3] $end
$var wire 1 " m [2] $end
$var wire 1 # m [1] $end
$var wire 1 $ m [0] $end
$var wire 1 % v $end
$var wire 1 & x [7] $end
$var wire 1 ' x [6] $end
$var wire 1 ( x [5] $end
$var wire 1 ) x [4] $end
$var wire 1 * x [3] $end
$var wire 1 + x [2] $end
$var wire 1 , x [1] $end
$var wire 1 - x [0] $end

$scope module i1 $end
$var wire 1 . gnd $end
$var wire 1 / vcc $end
$var wire 1 0 unknown $end
$var wire 1 1 devoe $end
$var wire 1 2 devclrn $end
$var wire 1 3 devpor $end
$var wire 1 4 ww_devoe $end
$var wire 1 5 ww_devclrn $end
$var wire 1 6 ww_devpor $end
$var wire 1 7 ww_x [7] $end
$var wire 1 8 ww_x [6] $end
$var wire 1 9 ww_x [5] $end
$var wire 1 : ww_x [4] $end
$var wire 1 ; ww_x [3] $end
$var wire 1 < ww_x [2] $end
$var wire 1 = ww_x [1] $end
$var wire 1 > ww_x [0] $end
$var wire 1 ? ww_m [3] $end
$var wire 1 @ ww_m [2] $end
$var wire 1 A ww_m [1] $end
$var wire 1 B ww_m [0] $end
$var wire 1 C ww_v $end
$var wire 1 D \m[0]~output_o\ $end
$var wire 1 E \m[1]~output_o\ $end
$var wire 1 F \m[2]~output_o\ $end
$var wire 1 G \m[3]~output_o\ $end
$var wire 1 H \v~output_o\ $end
$var wire 1 I \x[1]~input_o\ $end
$var wire 1 J \x[3]~input_o\ $end
$var wire 1 K \x[6]~input_o\ $end
$var wire 1 L \x[4]~input_o\ $end
$var wire 1 M \x[0]~input_o\ $end
$var wire 1 N \x[2]~input_o\ $end
$var wire 1 O \x[5]~input_o\ $end
$var wire 1 P \x[7]~input_o\ $end
$var wire 1 Q \m_partial_encoder[2]~1_combout\ $end
$var wire 1 R \m3_c[0]~2_combout\ $end
$var wire 1 S \m3_c[2]~0_combout\ $end
$var wire 1 T \m3_c[3]~1_combout\ $end
$var wire 1 U \m3_c[1]~3_combout\ $end
$var wire 1 V \m_partial_encoder[3]~0_combout\ $end
$var wire 1 W \pop|hA02|and20|y~combout\ $end
$var wire 1 X \pop|fA11|fA0|and20|y~combout\ $end
$var wire 1 Y \pop|fA20|hA0|and20|y~combout\ $end
$var wire 1 Z \pop|fA20|fA10|or20|y~1_combout\ $end
$var wire 1 [ \m_partial_encoder[1]~2_combout\ $end
$var wire 1 \ \pop|hA01|and20|y~combout\ $end
$var wire 1 ] \pop|hA00|and20|y~combout\ $end
$var wire 1 ^ \pop|fA10|hA0|and20|y~combout\ $end
$var wire 1 _ \pop|fA20|fA10|or20|y~0_combout\ $end
$var wire 1 ` \pop|fA20|fA10|or20|y~2_combout\ $end
$var wire 1 a \m1_v~0_combout\ $end
$var wire 1 b \m2_v~0_combout\ $end
$var wire 1 c \m3_v~0_combout\ $end
$var wire 1 d \m_v~0_combout\ $end
$var wire 1 e \pop|fA10|fA0|and20|y~combout\ $end
$var wire 1 f \m~0_combout\ $end
$var wire 1 g \m~1_combout\ $end
$var wire 1 h \m~2_combout\ $end
$var wire 1 i \m~3_combout\ $end
$var wire 1 j m2_c [3] $end
$var wire 1 k m2_c [2] $end
$var wire 1 l m2_c [1] $end
$var wire 1 m m2_c [0] $end
$var wire 1 n m1_c [3] $end
$var wire 1 o m1_c [2] $end
$var wire 1 p m1_c [1] $end
$var wire 1 q m1_c [0] $end
$var wire 1 r \part_encoder|o\ [7] $end
$var wire 1 s \part_encoder|o\ [6] $end
$var wire 1 t \part_encoder|o\ [5] $end
$var wire 1 u \part_encoder|o\ [4] $end
$var wire 1 v \part_encoder|o\ [3] $end
$var wire 1 w \part_encoder|o\ [2] $end
$var wire 1 x \part_encoder|o\ [1] $end
$var wire 1 y \part_encoder|o\ [0] $end
$var wire 1 z \ALT_INV_m_v~0_combout\ $end
$upscope $end
$upscope $end
$enddefinitions $end
#0
$dumpvars
1%
0.
1/
x0
11
12
13
14
15
16
1C
0D
0E
0F
0G
1H
0I
0J
0K
0L
1M
0N
0O
0P
0Q
1R
0S
0T
0U
0V
0W
0X
0Y
0Z
0[
0\
0]
0^
0_
0`
1a
1b
1c
0d
0e
0f
0g
0h
0i
1z
0&
0'
0(
0)
0*
0+
0,
1-
07
08
09
0:
0;
0<
0=
1>
0?
0@
0A
0B
0j
0k
0l
1m
0n
0o
0p
1q
xr
xs
xt
xu
xv
xw
0x
xy
0!
0"
0#
0$
$end
#100000
1&
1'
1)
1+
0-
0>
1<
1:
18
17
1P
1K
1L
1N
0M
0R
1U
1S
1j
1Z
1n
0a
0b
1Y
0c
1`
1d
0z
0H
0C
0%
#190000
0&
0'
0+
1-
1(
1,
1>
1=
0<
19
08
07
0P
0K
1O
0N
1I
1M
0q
1l
1]
0U
0S
1W
1k
0Z
0n
0Y
1c
1_
1Q
1b
1a
0W
1x
0d
1h
1z
1f
0]
0`
0f
0_
1F
1H
1@
1D
1C
1"
1B
1%
0D
1$
0B
0$
#260000
1'
1+
0-
0)
0>
1<
0:
18
1K
0L
1N
0M
1R
1U
1S
1T
1Z
1V
0Z
1i
1G
1?
1!
#340000
0'
1-
0(
1*
1>
1;
09
08
0K
0O
1J
1M
0m
0R
1q
0l
0U
1n
0j
0S
1p
0k
0T
1o
1Z
1[
0V
0Q
0h
0Z
0i
1g
1E
0G
0F
1A
0?
0@
1#
0"
0!
#420000
1'
0-
0+
1)
0>
0<
1:
18
1K
1L
0N
0M
1R
1U
1S
1T
1Z
1V
0Z
1i
1G
1?
1!
#500000
0'
1+
1(
0,
0=
1<
19
08
0K
1O
1N
0I
1l
0R
1m
0U
1j
0S
1k
0T
1Z
0V
1Q
0x
1h
0Z
1]
0i
1_
0]
0_
0G
1F
0?
1@
1"
0!
#560000
1'
0+
1-
0)
1>
0<
0:
18
1K
0L
0N
1M
1R
1U
1S
1T
1Z
1V
0Z
1i
1G
1?
1!
#620000
1+
1)
1,
1&
1=
1<
1:
17
1P
1L
1N
1I
0l
0R
0p
0m
0U
0o
0k
0S
0q
0j
0T
0n
1Z
0[
0V
0Q
0h
1W
1]
0i
1\
0g
1e
1X
1f
0E
0G
0F
0A
0?
0@
0#
0"
0!
1D
1B
1$
#670000
0+
0)
0'
0-
0>
0<
0:
08
0K
0L
0N
0M
1R
0]
1U
0\
1S
0W
1T
0X
0Z
1Z
0e
1V
1W
1\
1]
1i
0f
1e
1X
1f
0D
1G
0B
1?
0$
1!
1D
1B
1$
#710000
1+
1'
0,
0(
0=
1<
09
18
1K
0O
1N
0I
1l
0R
0]
1m
0U
0\
1j
0S
0W
1k
0T
0X
0Z
1Z
0e
0V
1Q
1x
1h
1W
1\
0i
0f
1_
1X
1]
0_
1e
1f
0D
0G
1F
0B
0?
1@
0$
1"
0!
1D
1B
1$
#770000
0+
0'
1)
1-
1>
0<
1:
08
0K
1L
0N
1M
1R
0]
1U
0\
1S
0W
1T
0X
0Z
1Z
0e
1V
1W
1\
1]
1i
0f
1e
1X
1f
0D
1G
0B
1?
0$
1!
1D
1B
1$
#820000
1'
0-
1(
0*
0>
0;
19
18
1K
1O
0J
0M
0m
0R
1q
0]
0l
0U
1n
0\
0j
0S
0W
1p
0k
0T
0X
0Z
1o
1Z
0e
1[
0V
0Q
0h
1W
1]
0i
1\
1g
0f
1e
1X
1f
0D
1E
0G
0F
0B
1A
0?
0@
0$
1#
0"
0!
1D
1B
1$
#860000
0'
1-
1+
0)
1>
1<
0:
08
0K
0L
1N
1M
1R
0]
1U
0\
1S
0W
1T
0X
0Z
1Z
0e
1V
1W
1\
1]
1i
0f
1e
1X
1f
0D
1G
0B
1?
0$
1!
1D
1B
1$
#910000
1'
0+
0(
1,
1=
0<
09
18
1K
0O
0N
1I
1l
0R
0]
1m
0U
0\
1j
0S
0W
1k
0T
0X
0Z
1Z
0e
0V
1Q
0x
1h
1W
1\
0i
0f
1_
1X
1]
0_
1e
1f
0D
0G
1F
0B
0?
1@
0$
1"
0!
1D
1B
1$
#960000
0'
1+
0-
1)
0>
1<
1:
08
0K
1L
1N
0M
1R
0]
1U
0\
1S
0W
1T
0X
0Z
1Z
0e
1V
1W
1\
1]
1i
0f
1e
1X
1f
0D
1G
0B
1?
0$
1!
1D
1B
1$
